# Fdb version 3
["bibtex tesis-usach"] 1468172036 "tesis-usach.aux" "tesis-usach.bbl" "tesis-usach" 1468189070
  "./apa-good.bst" 1455826421 29530 55b690a27463307a45745a35fd3e702e ""
  "/home/miguel/Documents/formato-tesis-usach/anexos/Anexo-1.aux" 1468189013 2114 ac5255d81f9b8204f0f306f3c794bee1 ""
  "/home/miguel/Documents/formato-tesis-usach/chapters/1-Introduccion.aux" 1468189011 5280 9333551cb1cdfe2403a0bbbf9fee1f91 ""
  "/home/miguel/Documents/formato-tesis-usach/chapters/2-Cuerpo.aux" 1468189012 14125 036c3df85b33003f5a269b570d2194d6 ""
  "/home/miguel/Documents/formato-tesis-usach/chapters/3-Conclusiones.aux" 1468189012 1756 28665c73d5826c777d1680e26768f82e ""
  "/home/miguel/Documents/formato-tesis-usach/preliminares/abstract.aux" 1468189011 1486 86cdcc5d1416710b639e719ca8d82fc5 ""
  "/home/miguel/Documents/formato-tesis-usach/preliminares/agradecimiento.aux" 1468189011 1492 c3ea97af7f5c25eea0e5f1c31db0110b ""
  "/home/miguel/Documents/formato-tesis-usach/preliminares/cubierta.aux" 1468189011 1486 87f7302d754f3867b335a70e2954d3a1 ""
  "/home/miguel/Documents/formato-tesis-usach/preliminares/dedicatoria.aux" 1468189011 1489 88b3b644482894399bf9539f9d04b24a ""
  "bibliografia.bib" 1468170551 49055 0c8086acc4c5f2b5e7f9f06f3edb6731 ""
  "tesis-usach.aux" 1468189013 5958 26aac1fa247e0a49fa4ff3809f5e0b04 ""
  "tesis-usach.bcf" 0 -1 0 ""
  (generated)
  "tesis-usach.blg"
  "tesis-usach.bbl"
["pdflatex"] 1468189010 "tesis-usach.tex" "/home/miguel/Documents/formato-tesis-usach/tesis-usach.pdf" "tesis-usach" 1468189070
  "./images/LogoUsach.png" 1455826421 86086 89f3946d6821a855f31597547420384e ""
  "./images/matrixandvector.eps" 1463272754 810218 57893de56dbab684d7763ded95c403f3 ""
  "./images/openmp.eps" 1466909394 785598 f6b336372c18e250f90bb11382fd2fee ""
  "./images/p2p.eps" 1466909359 568469 8398fc63043da8aa6ec1a2928a6d5acd ""
  "/etc/texmf/web2c/texmf.cnf" 1463412937 475 c0e671620eb5563b2130f56340a5fde8 ""
  "/home/miguel/Documents/formato-tesis-usach/tesis-usach.aux" 1468189013 5958 26aac1fa247e0a49fa4ff3809f5e0b04 ""
  "/usr/share/texlive/texmf-dist/fonts/map/fontname/texfonts.map" 1272929888 3287 e6b82fe08f5336d4d5ebc73fb1152e87 ""
  "/usr/share/texlive/texmf-dist/fonts/tfm/adobe/zapfding/pzdr.tfm" 1136768653 1528 f853c4d1b4e0550255e02831fdc8496f ""
  "/usr/share/texlive/texmf-dist/fonts/tfm/jknappen/ec/ectt1000.tfm" 1136768653 1536 06717a2b50de47d4087ac0e6cd759455 ""
  "/usr/share/texlive/texmf-dist/fonts/tfm/jknappen/ec/tcrm0500.tfm" 1136768653 1536 b3387106d9afecbfe14bde2de6eadf47 ""
  "/usr/share/texlive/texmf-dist/fonts/tfm/jknappen/ec/tcrm0700.tfm" 1136768653 1536 73da8e8f1d2a4c957d51ca133585586b ""
  "/usr/share/texlive/texmf-dist/fonts/tfm/jknappen/ec/tcrm1000.tfm" 1136768653 1536 e07581a4bb3136ece9eeb4c3ffab8233 ""
  "/usr/share/texlive/texmf-dist/fonts/tfm/public/amsfonts/cmextra/cmex7.tfm" 1246382020 1004 54797486969f23fa377b128694d548df ""
  "/usr/share/texlive/texmf-dist/fonts/tfm/public/amsfonts/euler/eurm10.tfm" 1246382020 1228 9be37fdf0dc0e1f4df4af3594876d628 ""
  "/usr/share/texlive/texmf-dist/fonts/tfm/public/amsfonts/euler/eurm5.tfm" 1246382020 1228 6fc4d2f2c0a79dc4f413411f6e2f336c ""
  "/usr/share/texlive/texmf-dist/fonts/tfm/public/amsfonts/euler/eurm7.tfm" 1246382020 1228 22a83614922c993c1b2e124955a38ca1 ""
  "/usr/share/texlive/texmf-dist/fonts/tfm/public/amsfonts/symbols/msam10.tfm" 1246382020 916 f87d7c45f9c908e672703b83b72241a3 ""
  "/usr/share/texlive/texmf-dist/fonts/tfm/public/amsfonts/symbols/msam5.tfm" 1246382020 924 9904cf1d39e9767e7a3622f2a125a565 ""
  "/usr/share/texlive/texmf-dist/fonts/tfm/public/amsfonts/symbols/msam7.tfm" 1246382020 928 2dc8d444221b7a635bb58038579b861a ""
  "/usr/share/texlive/texmf-dist/fonts/tfm/public/amsfonts/symbols/msbm10.tfm" 1246382020 908 2921f8a10601f252058503cc6570e581 ""
  "/usr/share/texlive/texmf-dist/fonts/tfm/public/amsfonts/symbols/msbm5.tfm" 1246382020 940 75ac932a52f80982a9f8ea75d03a34cf ""
  "/usr/share/texlive/texmf-dist/fonts/tfm/public/amsfonts/symbols/msbm7.tfm" 1246382020 940 228d6584342e91276bf566bcf9716b83 ""
  "/usr/share/texlive/texmf-dist/fonts/tfm/public/latex-fonts/lasy10.tfm" 1136768653 520 82a3d37183f34b6eb363a161dfc002c2 ""
  "/usr/share/texlive/texmf-dist/fonts/tfm/public/latex-fonts/lasy5.tfm" 1136768653 520 d082ac03a1087bc1ec2a06e24a9f68c0 ""
  "/usr/share/texlive/texmf-dist/fonts/tfm/public/latex-fonts/lasy7.tfm" 1136768653 520 a74c6ed8cb48679fdc3ea874d9d34a7e ""
  "/usr/share/texlive/texmf-dist/fonts/tfm/public/rsfs/rsfs10.tfm" 1229303445 688 37338d6ab346c2f1466b29e195316aa4 ""
  "/usr/share/texlive/texmf-dist/fonts/tfm/public/rsfs/rsfs5.tfm" 1229303445 684 3a51bd4fd9600428d5264cf25f04bb9a ""
  "/usr/share/texlive/texmf-dist/fonts/tfm/public/rsfs/rsfs7.tfm" 1229303445 692 1b6510779f0f05e9cbf03e0f6c8361e6 ""
  "/usr/share/texlive/texmf-dist/fonts/tfm/public/stmaryrd/stmary10.tfm" 1302307949 848 f478e0761563bbc369eca609a1741348 ""
  "/usr/share/texlive/texmf-dist/fonts/tfm/public/stmaryrd/stmary5.tfm" 1302307949 848 e1bc58a31b9ed9c3729ffea165acfaac ""
  "/usr/share/texlive/texmf-dist/fonts/tfm/public/stmaryrd/stmary7.tfm" 1302307949 848 26631fcb3e4cb6757598b9cda7967b63 ""
  "/usr/share/texlive/texmf-dist/tex/generic/babel-english/english.ldf" 1367878877 6963 2e0cb3d93aa64508bdb0db58ae900d97 ""
  "/usr/share/texlive/texmf-dist/tex/generic/babel/babel.def" 1456440043 50112 f44490c2cb959606ae206a8f9f3f70e2 ""
  "/usr/share/texlive/texmf-dist/tex/generic/babel/babel.sty" 1456440043 13499 cfeb1da37929c37eb2a356b8abd63f74 ""
  "/usr/share/texlive/texmf-dist/tex/generic/babel/xebabel.def" 1456440043 3932 b11270ae7e7544d36a90fb549cbc79bb ""
  "/usr/share/texlive/texmf-dist/tex/generic/epsf/epsf.sty" 1298075956 27123 4572e7b856182a1e6e9df1c7cc21de80 ""
  "/usr/share/texlive/texmf-dist/tex/generic/ifxetex/ifxetex.sty" 1284331290 1458 43ab4710dc82f3edeabecd0d099626b2 ""
  "/usr/share/texlive/texmf-dist/tex/generic/oberdiek/gettitlestring.sty" 1303254447 8237 52810bdb4db2270e717422560a104aea ""
  "/usr/share/texlive/texmf-dist/tex/generic/oberdiek/hobsub-generic.sty" 1338332114 189108 8b3553a56c83ff61acecb36b75d817e2 ""
  "/usr/share/texlive/texmf-dist/tex/generic/oberdiek/hobsub-hyperref.sty" 1338332114 70752 45fa392800e07da61fa13446ad46b34d ""
  "/usr/share/texlive/texmf-dist/tex/generic/oberdiek/infwarerr.sty" 1335995445 8253 3bdedc8409aa5d290a2339be6f09af03 ""
  "/usr/share/texlive/texmf-dist/tex/generic/oberdiek/ltxcmds.sty" 1335995445 18425 775b341047ce304520cc7c11ca41392e ""
  "/usr/share/texlive/texmf-dist/tex/generic/oberdiek/se-ascii-print.def" 1335995445 3154 c8d7dcc61fa68a383356ee2a1d23927e ""
  "/usr/share/texlive/texmf-dist/tex/generic/oberdiek/stringenc.sty" 1335995445 21411 70ecd8a9f06f9e1b670126554a62ea3e ""
  "/usr/share/texlive/texmf-dist/tex/generic/unicode-data/CaseFolding.txt" 1449876215 74499 11c335947e5ffa8ac69a3e530b8d2b40 ""
  "/usr/share/texlive/texmf-dist/tex/generic/unicode-data/SpecialCasing.txt" 1449876215 16740 4c17368651bc455636f58c3366bdbbeb ""
  "/usr/share/texlive/texmf-dist/tex/generic/unicode-data/UnicodeData.txt" 1449876215 1621978 3a83069e69e2a9101dc4749593cd3268 ""
  "/usr/share/texlive/texmf-dist/tex/latex/algorithm2e/algorithm2e.sty" 1458942798 164989 3594e40ef88443a4b94f3d1b9eada0c9 ""
  "/usr/share/texlive/texmf-dist/tex/latex/algorithms/algorithmic.sty" 1251330371 9318 793e9d5a71e74e730d97f6bf5d7e2bca ""
  "/usr/share/texlive/texmf-dist/tex/latex/amscls/amsthm.sty" 1428861406 12225 3cca0d18522255979a1047206228b9d0 ""
  "/usr/share/texlive/texmf-dist/tex/latex/amsfonts/amsfonts.sty" 1359763108 5949 3f3fd50a8cc94c3d4cbf4fc66cd3df1c ""
  "/usr/share/texlive/texmf-dist/tex/latex/amsfonts/amssymb.sty" 1359763108 13829 94730e64147574077f8ecfea9bb69af4 ""
  "/usr/share/texlive/texmf-dist/tex/latex/amsfonts/umsa.fd" 1359763108 961 6518c6525a34feb5e8250ffa91731cff ""
  "/usr/share/texlive/texmf-dist/tex/latex/amsfonts/umsb.fd" 1359763108 961 d02606146ba5601b5645f987c92e6193 ""
  "/usr/share/texlive/texmf-dist/tex/latex/amsmath/amsbsy.sty" 1456875012 2210 5c54ab129b848a5071554186d0168766 ""
  "/usr/share/texlive/texmf-dist/tex/latex/amsmath/amsgen.sty" 1456875012 4160 c115536cf8d4ff25aa8c1c9bc4ecb79a ""
  "/usr/share/texlive/texmf-dist/tex/latex/amsmath/amsmath.sty" 1457045335 81928 0154df1c78a3ed620f585b10d4169d63 ""
  "/usr/share/texlive/texmf-dist/tex/latex/amsmath/amsopn.sty" 1456875012 3867 f0be3ac1db1ca657e6117507a2a8d69b ""
  "/usr/share/texlive/texmf-dist/tex/latex/amsmath/amstext.sty" 1456875012 2431 fe3078ec12fc30287f568596f8e0b948 ""
  "/usr/share/texlive/texmf-dist/tex/latex/appendix/appendix.sty" 1252539595 8526 d0d9b5e2dd0c996c69c3bd05eb25b943 ""
  "/usr/share/texlive/texmf-dist/tex/latex/babelbib/babelbib.sty" 1327967917 14790 cdfc228d970784f3651cf9ab004c00e5 ""
  "/usr/share/texlive/texmf-dist/tex/latex/babelbib/english.bdf" 1327967917 10163 646cf3f080480bebab83e276a4f61bab ""
  "/usr/share/texlive/texmf-dist/tex/latex/base/bk10.clo" 1454284088 9019 41411f1534c409ecf19450b0637fb3e8 ""
  "/usr/share/texlive/texmf-dist/tex/latex/base/book.cls" 1454284088 23832 3cd048b25bb2ab952740c13d32bae084 ""
  "/usr/share/texlive/texmf-dist/tex/latex/base/fontenc.sty" 1454284088 4572 634fcdf7e9df867d6d54f84638930408 ""
  "/usr/share/texlive/texmf-dist/tex/latex/base/ifthen.sty" 1454284088 5159 a08c9bbd48fc492f15b22e458bef961f ""
  "/usr/share/texlive/texmf-dist/tex/latex/base/inputenc.sty" 1454284088 5619 b1e63522e111972696a4db609d2b915f ""
  "/usr/share/texlive/texmf-dist/tex/latex/base/latexsym.sty" 1454284088 2854 d9a09e80ec53a1710adc74c0e8300370 ""
  "/usr/share/texlive/texmf-dist/tex/latex/base/textcomp.sty" 1454284088 16155 3b0b2cc7c05e0ccf8c3ce5da21d4bccb ""
  "/usr/share/texlive/texmf-dist/tex/latex/base/ts1cmr.fd" 1454284088 2217 d274654bda1292013bdf48d5f720a495 ""
  "/usr/share/texlive/texmf-dist/tex/latex/base/ts1enc.def" 1454284088 7767 aa88823823f5e767d79ea1166ab1ae74 ""
  "/usr/share/texlive/texmf-dist/tex/latex/base/ulasy.fd" 1454284088 2020 d5c6fbbe41610194529ecfc3e463c559 ""
  "/usr/share/texlive/texmf-dist/tex/latex/booktabs/booktabs.sty" 1211777752 6375 989ecfb545a13610facc71ae7e40ced1 ""
  "/usr/share/texlive/texmf-dist/tex/latex/caption/caption.sty" 1456094605 66233 8b81cfab95a1f8fc2f0f6c89415b087a ""
  "/usr/share/texlive/texmf-dist/tex/latex/caption/caption3.sty" 1456094605 64437 7aae26f62358cb5be7cae9d865fab5b8 ""
  "/usr/share/texlive/texmf-dist/tex/latex/caption/ltcaption.sty" 1442533747 7257 dd37a106002acb997b6c947cf18f297e ""
  "/usr/share/texlive/texmf-dist/tex/latex/colortbl/colortbl.sty" 1329267615 10607 9635c8e2bffccf182429bfdea9b665a5 ""
  "/usr/share/texlive/texmf-dist/tex/latex/eepic/eepic.sty" 1137110077 17662 c85d6c04287ee4592a15f6d02221d58f ""
  "/usr/share/texlive/texmf-dist/tex/latex/eepic/epic.sty" 1247274248 25873 0e813d2f6e266780f0cedef5eb5e2525 ""
  "/usr/share/texlive/texmf-dist/tex/latex/etoolbox/etoolbox.sty" 1438639395 41547 7860e623236f5f726a4099bbb7dd89fb ""
  "/usr/share/texlive/texmf-dist/tex/latex/euenc/eu1enc.def" 1284849341 1115 6f8850603672e58af2cd599bee6ade7d ""
  "/usr/share/texlive/texmf-dist/tex/latex/euenc/eu1lmr.fd" 1266195411 2284 11da099e92da4724f712149045c96354 ""
  "/usr/share/texlive/texmf-dist/tex/latex/euenc/eu1lmss.fd" 1266195411 1546 f73305b0ca2520efb4953d14dfcb9cb7 ""
  "/usr/share/texlive/texmf-dist/tex/latex/euenc/eu1lmtt.fd" 1266195411 2375 048018091c9aef586c688eaf2feff1a1 ""
  "/usr/share/texlive/texmf-dist/tex/latex/fancybox/fancybox.sty" 1274111957 27261 5ae6156674330dc345adb79b6e5d8966 ""
  "/usr/share/texlive/texmf-dist/tex/latex/fancyhdr/fancyhdr.sty" 1160175134 20521 e5d13d98d57bd53d4fed3aa61bd29c86 ""
  "/usr/share/texlive/texmf-dist/tex/latex/fancyvrb/fancyvrb.sty" 1274829816 45360 a0833d32f1b541964596b02870342d5a ""
  "/usr/share/texlive/texmf-dist/tex/latex/float/float.sty" 1137110151 6749 16d2656a1984957e674b149555f1ea1d ""
  "/usr/share/texlive/texmf-dist/tex/latex/fontspec/fontspec-xetex.sty" 1454367976 105606 a38c5ce7d05796198d17f5a6bc55964a ""
  "/usr/share/texlive/texmf-dist/tex/latex/fontspec/fontspec.cfg" 1454367976 530 838458c50df1b4d16b8dc5267ab31958 ""
  "/usr/share/texlive/texmf-dist/tex/latex/fontspec/fontspec.sty" 1454367976 1699 41a8dcd7126940efa254804d5311bbda ""
  "/usr/share/texlive/texmf-dist/tex/latex/fontspec/tuenc.def" 1454194825 2750 07f3818c01ba17443761721994a6b23b ""
  "/usr/share/texlive/texmf-dist/tex/latex/geometry/geometry.sty" 1284422013 40502 e003406220954b0716679d7928aedd8a ""
  "/usr/share/texlive/texmf-dist/tex/latex/graphics/color.sty" 1454284088 6829 2b7f546d7727252fdb2d538f7dee5a59 ""
  "/usr/share/texlive/texmf-dist/tex/latex/graphics/graphics.sty" 1454284088 14337 b66dff1d80f6c21e70858a2b3c2d327d ""
  "/usr/share/texlive/texmf-dist/tex/latex/graphics/graphicx.sty" 1428932888 8125 557ab9f1bfa80d369fb45a914aa8a3b4 ""
  "/usr/share/texlive/texmf-dist/tex/latex/graphics/keyval.sty" 1428932888 2594 d18d5e19aa8239cf867fa670c556d2e9 ""
  "/usr/share/texlive/texmf-dist/tex/latex/graphics/lscape.sty" 1428932888 1757 94e21888eaf2391b7bbc441045c70c12 ""
  "/usr/share/texlive/texmf-dist/tex/latex/graphics/trig.sty" 1454284088 3980 0a268fbfda01e381fa95821ab13b6aee ""
  "/usr/share/texlive/texmf-dist/tex/latex/hyperref/hxetex.def" 1352416072 44958 bfa1a9a3364a325e541cf3ab22104dc1 ""
  "/usr/share/texlive/texmf-dist/tex/latex/hyperref/hyperref.sty" 1352416072 231792 5fc9dc7dd667e773a766ecc63bba7f4b ""
  "/usr/share/texlive/texmf-dist/tex/latex/hyperref/nameref.sty" 1351899753 12847 25b617d63258c4f72870c883493a3cf8 ""
  "/usr/share/texlive/texmf-dist/tex/latex/hyperref/pd1enc.def" 1352416072 14005 155ac8fad2e5dd7c2cdd130fabd96633 ""
  "/usr/share/texlive/texmf-dist/tex/latex/hyperref/puenc.def" 1352416072 122263 ec12fdd2044f1507e5ae92ee7a5bbfae ""
  "/usr/share/texlive/texmf-dist/tex/latex/jknapltx/mathrsfs.sty" 1137110241 300 12fa6f636b617656f2810ee82cb05015 ""
  "/usr/share/texlive/texmf-dist/tex/latex/jknapltx/ursfs.fd" 1137110241 548 cc4e3557704bfed27c7002773fad6c90 ""
  "/usr/share/texlive/texmf-dist/tex/latex/l3kernel/expl3-code.tex" 1453849251 686603 9f8b85b0af9db93ed19d75de651aad2c ""
  "/usr/share/texlive/texmf-dist/tex/latex/l3kernel/expl3.sty" 1453849251 9673 2ca4934644a9a7e0597063b0f97d539f ""
  "/usr/share/texlive/texmf-dist/tex/latex/l3kernel/l3xdvipdfmx.def" 1450652454 4151 57d771ff0ee66eb3a2830fc687fe73ad ""
  "/usr/share/texlive/texmf-dist/tex/latex/l3packages/xparse/xparse.sty" 1453849251 61965 14683d841d7ec123041a99a91475bd92 ""
  "/usr/share/texlive/texmf-dist/tex/latex/latexconfig/color.cfg" 1254097189 802 7b8c8d72c24d795ed7720e4dfd29bff3 ""
  "/usr/share/texlive/texmf-dist/tex/latex/latexconfig/graphics.cfg" 1278958963 3563 d35e897cae3b8c6848f6677b73370b54 ""
  "/usr/share/texlive/texmf-dist/tex/latex/latexconfig/hyperref.cfg" 1254097189 235 6031e5765137be07eed51a510b2b8fb7 ""
  "/usr/share/texlive/texmf-dist/tex/latex/listings/listings.cfg" 1434304428 1827 d72ad54409ca5c1068a1939c63441bd2 ""
  "/usr/share/texlive/texmf-dist/tex/latex/listings/listings.sty" 1434304428 80336 ff90c926c3d7bfdaa3d80ca57123b0bb ""
  "/usr/share/texlive/texmf-dist/tex/latex/listings/lstlang1.sty" 1434304428 93445 48e5be20ba2d0a2ca5c4ce7e292a4bbc ""
  "/usr/share/texlive/texmf-dist/tex/latex/listings/lstmisc.sty" 1434304428 77028 c3eb00afb55a32bc13ca8da7f5234377 ""
  "/usr/share/texlive/texmf-dist/tex/latex/marvosym/marvosym.sty" 1333989323 9393 ceaf2ea8eb2c81fdb168323fc5fffc89 ""
  "/usr/share/texlive/texmf-dist/tex/latex/mathcomp/mathcomp.sty" 1137110324 1664 5b1a6a9b94bdeda98a6e667907be0af1 ""
  "/usr/share/texlive/texmf-dist/tex/latex/multirow/multirow.sty" 1137110401 7374 f7c1f13fc632dd5c9b220a247d233082 ""
  "/usr/share/texlive/texmf-dist/tex/latex/natbib/natbib.sty" 1458942643 45458 f1c6cb3edd91174e966cbbaf88993bcf ""
  "/usr/share/texlive/texmf-dist/tex/latex/oberdiek/auxhook.sty" 1303254447 3834 707ef09f31d7d2ea47ba89974755dfe0 ""
  "/usr/share/texlive/texmf-dist/tex/latex/oberdiek/hypcap.sty" 1335995445 3720 f909bdc3fac6af505c1f55366aa4d44c ""
  "/usr/share/texlive/texmf-dist/tex/latex/oberdiek/kvoptions.sty" 1335995445 22417 c74ff4af6a1aa2b65d1924020edbbe11 ""
  "/usr/share/texlive/texmf-dist/tex/latex/oberdiek/rerunfilecheck.sty" 1303254447 9581 1158efc648bc09d5064db5703c882159 ""
  "/usr/share/texlive/texmf-dist/tex/latex/psfrag/psfrag.sty" 1137110621 7349 04574cd13971edb76f06a9e2e9a108d9 ""
  "/usr/share/texlive/texmf-dist/tex/latex/relsize/relsize.sty" 1369619135 15542 c4cc3164fe24f2f2fbb06eb71b1da4c4 ""
  "/usr/share/texlive/texmf-dist/tex/latex/setspace/setspace.sty" 1324344192 22913 a27d7908fc6f0385466454a966a316eb ""
  "/usr/share/texlive/texmf-dist/tex/latex/soul/soul.sty" 1137110840 23636 c37eef0334dd2011d112d2040c11328f ""
  "/usr/share/texlive/texmf-dist/tex/latex/stmaryrd/Ustmry.fd" 1137110872 1766 216b0f832c406513647608b5bb9bb8ff ""
  "/usr/share/texlive/texmf-dist/tex/latex/stmaryrd/stmaryrd.sty" 1302307949 11080 aa7f81da60ce104f0dbb8b827dd14383 ""
  "/usr/share/texlive/texmf-dist/tex/latex/subfig/subfig.sty" 1158586182 21369 9ef165ca6df8815c92e693146a376c92 ""
  "/usr/share/texlive/texmf-dist/tex/latex/titlesec/titlesec.sty" 1458167616 37376 24e8897adf60e0b032f1eda26754a8cf ""
  "/usr/share/texlive/texmf-dist/tex/latex/tocbibind/tocbibind.sty" 1287012853 8927 46f54e33fc9cef24f78ab3bc811cb63f ""
  "/usr/share/texlive/texmf-dist/tex/latex/tocloft/tocloft.sty" 1367531278 34706 345df874e59e023274392bd0cf090d66 ""
  "/usr/share/texlive/texmf-dist/tex/latex/tools/array.sty" 1454284088 13285 f3f53a6ffbd47ead3faa66a5e2be19b7 ""
  "/usr/share/texlive/texmf-dist/tex/latex/tools/enumerate.sty" 1454284088 3467 d39e40f25d5fd2b3b49a58d155063dd6 ""
  "/usr/share/texlive/texmf-dist/tex/latex/tools/indentfirst.sty" 1454284088 1617 820bc46185ca5aeeda2ecc6c21866b18 ""
  "/usr/share/texlive/texmf-dist/tex/latex/tools/longtable.sty" 1454284088 12083 80916157594a8e4354985aaefae4f367 ""
  "/usr/share/texlive/texmf-dist/tex/latex/tools/verbatim.sty" 1454284088 7264 cf839ee7f0c2bfc711b0b88970764569 ""
  "/usr/share/texlive/texmf-dist/tex/latex/tools/xspace.sty" 1454284088 4544 8b8f59969458e1c25e0559e8e0ced1a4 ""
  "/usr/share/texlive/texmf-dist/tex/latex/units/nicefrac.sty" 1137111039 4029 0462ee5ab265cf59dc15a41a3b883101 ""
  "/usr/share/texlive/texmf-dist/tex/latex/units/units.sty" 1137111039 2134 65ad9fb19763b1681bea4cb389fe84f8 ""
  "/usr/share/texlive/texmf-dist/tex/latex/url/url.sty" 1388531844 12796 8edb7d69a20b857904dd0ea757c14ec9 ""
  "/usr/share/texlive/texmf-dist/tex/latex/was/upgreek.sty" 1137111079 5794 9054e31be15d93f1e6bd28cca2b6643f ""
  "/usr/share/texlive/texmf-dist/tex/latex/xcolor/xcolor.sty" 1169481954 55224 a43bab84e0ac5e6efcaf9a98bde73a94 ""
  "/usr/share/texlive/texmf-dist/tex/xelatex/xetex-def/xetex.def" 1442960835 18976 b1d418f9dd085480d816288313be1405 ""
  "/usr/share/texlive/texmf-dist/tex/xelatex/xunicode/xunicode.sty" 1315783907 205722 8027ed7ab2230086d647802c25f3ee42 ""
  "/usr/share/texlive/texmf-dist/web2c/texmf.cnf" 1458942643 31351 b32c45dce4a01cb7b53ed90c546614ca ""
  "/usr/share/texmf/tex/latex/tipa/t3cmr.fd" 1414244106 1257 fd5b1c2f0106f9cf12cdb2ff961987c5 ""
  "/usr/share/texmf/tex/latex/tipa/t3enc.def" 1414244106 26483 c461a68c34040cb0d96c43e86c012a6d ""
  "/usr/share/texmf/web2c/texmf.cnf" 1458942643 31351 b32c45dce4a01cb7b53ed90c546614ca ""
  "/var/lib/texmf/web2c/xetex/xelatex.fmt" 1463413431 2408019 1a410a6b799f796ef24a23ab292be619 ""
  "anexos/Anexo-1.aux" 1468189013 2114 ac5255d81f9b8204f0f306f3c794bee1 ""
  "anexos/Anexo-1.tex" 1467487687 4882 324b61e818cd581018ab6b3bff935cc3 ""
  "chapters/1-Introduccion.aux" 1468189011 5280 9333551cb1cdfe2403a0bbbf9fee1f91 ""
  "chapters/1-Introduccion.tex" 1461119674 23126 c4d2414fa314e4d46b1d833449cc8151 ""
  "chapters/2-Cuerpo.aux" 1468189012 14125 036c3df85b33003f5a269b570d2194d6 ""
  "chapters/2-Cuerpo.tex" 1468189069 45432 b7a4756c0ea792bbf0c98b1d103e817f ""
  "chapters/3-Conclusiones.aux" 1468189012 1756 28665c73d5826c777d1680e26768f82e ""
  "chapters/3-Conclusiones.tex" 1460840391 132 f5e070c6322623e729382dec701e58ef ""
  "images/HLTau_B3total.png" 1458091289 214094 0980f5859337c550c2d81471b1d420c9 ""
  "images/HLTau_B6antennas1.png" 1458090408 64654 cff93fbe7c4710d4929367ffc164addc ""
  "images/HLTau_B6antennasCenter.png" 1458090408 49508 587cb96b4fed2ce0b778763448a272a0 ""
  "images/HLTau_B6total.png" 1458091403 62294 1a3aac3d737ea33af2bdd76a728c3714 ""
  "images/HLTau_B7total.png" 1458091434 53071 746cdf3f97644a03987ec12589f7c7b3 ""
  "images/LogoUsach.png" 1455826421 86086 89f3946d6821a855f31597547420384e ""
  "images/antenas.eps" 1463247606 332483 71bdb93ad34bca200ec0552bf17dcdf1 ""
  "images/ecuatorial1.png" 1458443110 11951 2abe5601f5bfa2832a3163b72ee11050 ""
  "images/ecuatorial2.png" 1458417323 118378 7b9443de832d3921dd8fcca5c4c3fcef ""
  "images/frecuencias.eps" 1463250116 305506 b63f7420f32c43e783af01f4b74c9d2d ""
  "images/horizontales.png" 1458417323 171022 dcec7146d8f5f55ea7e42603d706d25c ""
  "images/licenses/cc_by.png" 1455826421 4739 6ff8ed82f42f1e6d3bb3fc1210018332 ""
  "images/matrixandvector.eps" 1463272754 810218 57893de56dbab684d7763ded95c403f3 ""
  "images/openmp.eps" 1466909394 785598 f6b336372c18e250f90bb11382fd2fee ""
  "images/p2p.eps" 1466909359 568469 8398fc63043da8aa6ec1a2928a6d5acd ""
  "images/uvplane1.png" 1459127859 24091 57559e088a2f527f0dee67f51f8105e5 ""
  "images/uvplane2.png" 1459127916 143514 305d3118892533eee04aba2ff8b54fe6 ""
  "preliminares/abstract.aux" 1468189011 1486 86cdcc5d1416710b639e719ca8d82fc5 ""
  "preliminares/abstract.tex" 1460840363 1705 5b44699107a5ac45a23e75559cc42dd0 ""
  "preliminares/agradecimiento.aux" 1468189011 1492 c3ea97af7f5c25eea0e5f1c31db0110b ""
  "preliminares/agradecimiento.tex" 1460840367 140 6323fbae0747101e4a3a21f52de5e824 ""
  "preliminares/cubierta.aux" 1468189011 1486 87f7302d754f3867b335a70e2954d3a1 ""
  "preliminares/cubierta.tex" 1460840371 684 098b794dcd6d449fc2a8b8758d5fd2e6 ""
  "preliminares/dedicatoria.aux" 1468189011 1489 88b3b644482894399bf9539f9d04b24a ""
  "preliminares/dedicatoria.tex" 1460840374 114 d8fe3298c86d59d98ac5f7a90e7f9863 ""
  "tesis-enumeracion.sty" 1455826421 338 21d7046d62276f470cfc67142c10ba68 ""
  "tesis-usach.aux" 1468189013 5958 26aac1fa247e0a49fa4ff3809f5e0b04 ""
  "tesis-usach.bbl" 1468172036 16257 9607065d6482d182bcb12ce7ff136124 "bibtex tesis-usach"
  "tesis-usach.cls" 1467487688 16634 618c3db007692e20145983bbff585d8b ""
  "tesis-usach.loa" 1468189013 1158 c3caa112509f0c65cf45bf13c3addd08 ""
  "tesis-usach.lof" 1468189013 3307 e893b5603982f337d9132283e2b42a35 ""
  "tesis-usach.lot" 1468189013 535 10860a06de3bcd5383accc41e62dbe5f ""
  "tesis-usach.out" 1468189013 2968 94f3b90b4941fe7187c2999510442f93 ""
  "tesis-usach.tex" 1468188010 1940 579a81832835b58c575bfbcb6853f584 ""
  "tesis-usach.toc" 1468189013 3386 efa82b81b8f24cad8910e46e7b330bfa ""
  (generated)
  "images/ecuatorial1.png"
  "/var/lib/texmf/web2c/xetex/xelatex.fmt"
  "preliminares/abstract.tex"
  "images/antenas.png"
  "chapters/2-Cuerpo.tex"
  "images/HLTau_B6total.png"
  "/usr/share/texmf/tex/latex/tipa/t3enc.def"
  "chapters/3-Conclusiones.aux"
  "tesis-enumeracion.sty"
  "images/antenas.eps"
  "chapters/2-Cuerpo.aux"
  "tesis-usach.lot"
  "images/frecuencias.eps"
  "/usr/share/texmf/tex/latex/xcolor/xcolor.sty"
  "tesis-usach.tex"
  "chapters/1-Introduccion.aux"
  "/home/miguel/Documents/formato-tesis-usach/tesis-usach.pdf"
  "/usr/share/texmf/web2c/texmf.cnf"
  "images/uvplane2.png"
  "images/p2p.eps"
  "anexos/Anexo-1.tex"
  "images/HLTau_B6antennas1.png"
  "tesis-usach.aux"
  "tesis-usach.log"
  "preliminares/agradecimiento.aux"
  "images/licenses/cc_by.png"
  "images/frecuencias.png"
  "images/HLTau_B7total.png"
  "images/HLTau_B6antennasCenter.png"
  "chapters/1-Introduccion.tex"
  "images/LogoUsach.png"
  "tesis-usach.bbl"
  "images/matrixandvector.eps"
  "images/horizontales.png"
  "tesis-usach.out"
  "/home/miguel/Documents/formato-tesis-usach/tesis-usach.log"
  "preliminares/agradecimiento.tex"
  "images/HLTau_B3total.png"
  "images/ecuatorial2.png"
  "/usr/share/texlive/texmf-dist/web2c/texmf.cnf"
  "tesis-usach.pdf"
  "preliminares/cubierta.aux"
  "preliminares/dedicatoria.tex"
  "preliminares/abstract.aux"
  "tesis-usach.cls"
  "images/uvplane1.png"
  "tesis-usach.toc"
  "chapters/3-Conclusiones.tex"
  "preliminares/cubierta.tex"
  "tesis-usach.loa"
  "preliminares/dedicatoria.aux"
  "/usr/share/texmf/tex/latex/tipa/t3cmr.fd"
  "images/openmp.eps"
  "anexos/Anexo-1.aux"
  "tesis-usach.lof"
