PWD /home/miguel/Documents/formato-tesis-usach
INPUT /etc/texmf/web2c/texmf.cnf
INPUT /usr/share/texmf/web2c/texmf.cnf
INPUT /usr/share/texlive/texmf-dist/web2c/texmf.cnf
INPUT /var/lib/texmf/web2c/xetex/xelatex.fmt
INPUT /home/miguel/Documents/formato-tesis-usach/tesis-usach.tex
OUTPUT /home/miguel/Documents/formato-tesis-usach/tesis-usach.log
INPUT /home/miguel/Documents/formato-tesis-usach/tesis-usach.cls
INPUT /home/miguel/Documents/formato-tesis-usach/tesis-usach.cls
INPUT /usr/share/texlive/texmf-dist/tex/latex/base/book.cls
INPUT /usr/share/texlive/texmf-dist/tex/latex/base/book.cls
INPUT /usr/share/texlive/texmf-dist/tex/latex/base/bk10.clo
INPUT /usr/share/texlive/texmf-dist/tex/latex/base/bk10.clo
INPUT /usr/share/texlive/texmf-dist/tex/latex/fontspec/fontspec.sty
INPUT /usr/share/texlive/texmf-dist/tex/latex/fontspec/fontspec.sty
INPUT /usr/share/texlive/texmf-dist/tex/latex/l3kernel/expl3.sty
INPUT /usr/share/texlive/texmf-dist/tex/latex/l3kernel/expl3.sty
INPUT /usr/share/texlive/texmf-dist/tex/latex/l3kernel/expl3-code.tex
INPUT /usr/share/texlive/texmf-dist/tex/latex/l3kernel/expl3-code.tex
INPUT /usr/share/texlive/texmf-dist/tex/generic/unicode-data/UnicodeData.txt
INPUT /usr/share/texlive/texmf-dist/tex/generic/unicode-data/CaseFolding.txt
INPUT /usr/share/texlive/texmf-dist/tex/generic/unicode-data/SpecialCasing.txt
INPUT /usr/share/texlive/texmf-dist/tex/latex/l3kernel/l3xdvipdfmx.def
INPUT /usr/share/texlive/texmf-dist/tex/latex/l3kernel/l3xdvipdfmx.def
INPUT /usr/share/texlive/texmf-dist/tex/latex/l3packages/xparse/xparse.sty
INPUT /usr/share/texlive/texmf-dist/tex/latex/l3packages/xparse/xparse.sty
INPUT /usr/share/texlive/texmf-dist/tex/latex/fontspec/fontspec-xetex.sty
INPUT /usr/share/texlive/texmf-dist/tex/latex/fontspec/fontspec-xetex.sty
INPUT /usr/share/texlive/texmf-dist/tex/latex/fontspec/tuenc.def
INPUT /usr/share/texlive/texmf-dist/tex/latex/base/fontenc.sty
INPUT /usr/share/texlive/texmf-dist/tex/latex/base/fontenc.sty
INPUT /usr/share/texlive/texmf-dist/tex/latex/euenc/eu1enc.def
INPUT /usr/share/texlive/texmf-dist/tex/latex/euenc/eu1enc.def
INPUT /usr/share/texlive/texmf-dist/tex/latex/euenc/eu1lmr.fd
INPUT /usr/share/texlive/texmf-dist/tex/latex/euenc/eu1lmr.fd
INPUT /usr/share/texlive/texmf-dist/tex/xelatex/xunicode/xunicode.sty
INPUT /usr/share/texlive/texmf-dist/tex/xelatex/xunicode/xunicode.sty
INPUT /usr/share/texmf/tex/latex/tipa/t3enc.def
INPUT /usr/share/texlive/texmf-dist/tex/latex/euenc/eu1lmss.fd
INPUT /usr/share/texlive/texmf-dist/tex/latex/euenc/eu1lmss.fd
INPUT /usr/share/texlive/texmf-dist/tex/latex/graphics/graphicx.sty
INPUT /usr/share/texlive/texmf-dist/tex/latex/graphics/graphicx.sty
INPUT /usr/share/texlive/texmf-dist/tex/latex/graphics/keyval.sty
INPUT /usr/share/texlive/texmf-dist/tex/latex/graphics/keyval.sty
INPUT /usr/share/texlive/texmf-dist/tex/latex/graphics/graphics.sty
INPUT /usr/share/texlive/texmf-dist/tex/latex/graphics/graphics.sty
INPUT /usr/share/texlive/texmf-dist/tex/latex/graphics/trig.sty
INPUT /usr/share/texlive/texmf-dist/tex/latex/graphics/trig.sty
INPUT /usr/share/texlive/texmf-dist/tex/latex/latexconfig/graphics.cfg
INPUT /usr/share/texlive/texmf-dist/tex/latex/latexconfig/graphics.cfg
INPUT /usr/share/texlive/texmf-dist/tex/xelatex/xetex-def/xetex.def
INPUT /usr/share/texlive/texmf-dist/tex/xelatex/xetex-def/xetex.def
INPUT /usr/share/texlive/texmf-dist/tex/generic/oberdiek/infwarerr.sty
INPUT /usr/share/texlive/texmf-dist/tex/generic/oberdiek/infwarerr.sty
INPUT /usr/share/texlive/texmf-dist/tex/generic/oberdiek/ltxcmds.sty
INPUT /usr/share/texlive/texmf-dist/tex/generic/oberdiek/ltxcmds.sty
INPUT /usr/share/texlive/texmf-dist/tex/latex/fontspec/fontspec.cfg
INPUT /usr/share/texlive/texmf-dist/tex/latex/fontspec/fontspec.cfg
INPUT /usr/share/texlive/texmf-dist/tex/generic/babel/babel.sty
INPUT /usr/share/texlive/texmf-dist/tex/generic/babel/babel.sty
INPUT /usr/share/texlive/texmf-dist/tex/generic/babel-english/english.ldf
INPUT /usr/share/texlive/texmf-dist/tex/generic/babel-english/english.ldf
INPUT /usr/share/texlive/texmf-dist/tex/generic/babel/babel.def
INPUT /usr/share/texlive/texmf-dist/tex/generic/babel/xebabel.def
INPUT /usr/share/texlive/texmf-dist/tex/latex/base/inputenc.sty
INPUT /usr/share/texlive/texmf-dist/tex/latex/base/inputenc.sty
INPUT /usr/share/texlive/texmf-dist/tex/latex/fancybox/fancybox.sty
INPUT /usr/share/texlive/texmf-dist/tex/latex/fancybox/fancybox.sty
INPUT /usr/share/texlive/texmf-dist/tex/latex/fancyhdr/fancyhdr.sty
INPUT /usr/share/texlive/texmf-dist/tex/latex/fancyhdr/fancyhdr.sty
INPUT /usr/share/texlive/texmf-dist/tex/latex/float/float.sty
INPUT /usr/share/texlive/texmf-dist/tex/latex/float/float.sty
INPUT /usr/share/texlive/texmf-dist/tex/latex/amsfonts/amsfonts.sty
INPUT /usr/share/texlive/texmf-dist/tex/latex/amsfonts/amsfonts.sty
INPUT /usr/share/texlive/texmf-dist/tex/latex/tools/indentfirst.sty
INPUT /usr/share/texlive/texmf-dist/tex/latex/tools/indentfirst.sty
INPUT /usr/share/texlive/texmf-dist/tex/latex/amsmath/amsmath.sty
INPUT /usr/share/texlive/texmf-dist/tex/latex/amsmath/amsmath.sty
INPUT /usr/share/texlive/texmf-dist/tex/latex/amsmath/amstext.sty
INPUT /usr/share/texlive/texmf-dist/tex/latex/amsmath/amstext.sty
INPUT /usr/share/texlive/texmf-dist/tex/latex/amsmath/amsgen.sty
INPUT /usr/share/texlive/texmf-dist/tex/latex/amsmath/amsgen.sty
INPUT /usr/share/texlive/texmf-dist/tex/latex/amsmath/amsbsy.sty
INPUT /usr/share/texlive/texmf-dist/tex/latex/amsmath/amsbsy.sty
INPUT /usr/share/texlive/texmf-dist/tex/latex/amsmath/amsopn.sty
INPUT /usr/share/texlive/texmf-dist/tex/latex/amsmath/amsopn.sty
INPUT /usr/share/texlive/texmf-dist/tex/latex/jknapltx/mathrsfs.sty
INPUT /usr/share/texlive/texmf-dist/tex/latex/jknapltx/mathrsfs.sty
INPUT /usr/share/texlive/texmf-dist/tex/latex/amsfonts/amssymb.sty
INPUT /usr/share/texlive/texmf-dist/tex/latex/amsfonts/amssymb.sty
INPUT /usr/share/texlive/texmf-dist/tex/latex/base/latexsym.sty
INPUT /usr/share/texlive/texmf-dist/tex/latex/base/latexsym.sty
INPUT /usr/share/texlive/texmf-dist/tex/latex/amscls/amsthm.sty
INPUT /usr/share/texlive/texmf-dist/tex/latex/amscls/amsthm.sty
INPUT /usr/share/texlive/texmf-dist/tex/latex/marvosym/marvosym.sty
INPUT /usr/share/texlive/texmf-dist/tex/latex/marvosym/marvosym.sty
INPUT /usr/share/texlive/texmf-dist/tex/latex/mathcomp/mathcomp.sty
INPUT /usr/share/texlive/texmf-dist/tex/latex/mathcomp/mathcomp.sty
INPUT /usr/share/texlive/texmf-dist/tex/latex/base/textcomp.sty
INPUT /usr/share/texlive/texmf-dist/tex/latex/base/textcomp.sty
INPUT /usr/share/texlive/texmf-dist/tex/latex/base/ts1enc.def
INPUT /usr/share/texlive/texmf-dist/tex/latex/base/ts1enc.def
INPUT /usr/share/texlive/texmf-dist/tex/latex/setspace/setspace.sty
INPUT /usr/share/texlive/texmf-dist/tex/latex/setspace/setspace.sty
INPUT /usr/share/texlive/texmf-dist/tex/latex/stmaryrd/stmaryrd.sty
INPUT /usr/share/texlive/texmf-dist/tex/latex/stmaryrd/stmaryrd.sty
INPUT /usr/share/texlive/texmf-dist/tex/latex/units/units.sty
INPUT /usr/share/texlive/texmf-dist/tex/latex/units/units.sty
INPUT /usr/share/texlive/texmf-dist/tex/latex/base/ifthen.sty
INPUT /usr/share/texlive/texmf-dist/tex/latex/base/ifthen.sty
INPUT /usr/share/texlive/texmf-dist/tex/latex/units/nicefrac.sty
INPUT /usr/share/texlive/texmf-dist/tex/latex/units/nicefrac.sty
INPUT /usr/share/texlive/texmf-dist/tex/latex/was/upgreek.sty
INPUT /usr/share/texlive/texmf-dist/tex/latex/was/upgreek.sty
INPUT /usr/share/texlive/texmf-dist/tex/latex/soul/soul.sty
INPUT /usr/share/texlive/texmf-dist/tex/latex/soul/soul.sty
INPUT /usr/share/texlive/texmf-dist/fonts/map/fontname/texfonts.map
INPUT /usr/share/texlive/texmf-dist/fonts/tfm/jknappen/ec/ectt1000.tfm
INPUT /usr/share/texlive/texmf-dist/tex/latex/tools/verbatim.sty
INPUT /usr/share/texlive/texmf-dist/tex/latex/tools/verbatim.sty
INPUT /usr/share/texlive/texmf-dist/tex/latex/fancyvrb/fancyvrb.sty
INPUT /usr/share/texlive/texmf-dist/tex/latex/fancyvrb/fancyvrb.sty
INPUT /usr/share/texlive/texmf-dist/tex/latex/tools/enumerate.sty
INPUT /usr/share/texlive/texmf-dist/tex/latex/tools/enumerate.sty
INPUT /usr/share/texlive/texmf-dist/tex/generic/epsf/epsf.sty
INPUT /usr/share/texlive/texmf-dist/tex/generic/epsf/epsf.sty
INPUT /usr/share/texlive/texmf-dist/tex/latex/psfrag/psfrag.sty
INPUT /usr/share/texlive/texmf-dist/tex/latex/psfrag/psfrag.sty
INPUT /usr/share/texlive/texmf-dist/tex/latex/eepic/epic.sty
INPUT /usr/share/texlive/texmf-dist/tex/latex/eepic/epic.sty
INPUT /usr/share/texlive/texmf-dist/tex/latex/eepic/eepic.sty
INPUT /usr/share/texlive/texmf-dist/tex/latex/eepic/eepic.sty
INPUT /usr/share/texlive/texmf-dist/tex/latex/subfig/subfig.sty
INPUT /usr/share/texlive/texmf-dist/tex/latex/subfig/subfig.sty
INPUT /usr/share/texlive/texmf-dist/tex/latex/caption/caption.sty
INPUT /usr/share/texlive/texmf-dist/tex/latex/caption/caption.sty
INPUT /usr/share/texlive/texmf-dist/tex/latex/caption/caption3.sty
INPUT /usr/share/texlive/texmf-dist/tex/latex/caption/caption3.sty
INPUT /usr/share/texlive/texmf-dist/tex/latex/tocloft/tocloft.sty
INPUT /usr/share/texlive/texmf-dist/tex/latex/tocloft/tocloft.sty
INPUT /usr/share/texlive/texmf-dist/tex/latex/graphics/color.sty
INPUT /usr/share/texlive/texmf-dist/tex/latex/graphics/color.sty
INPUT /usr/share/texlive/texmf-dist/tex/latex/latexconfig/color.cfg
INPUT /usr/share/texlive/texmf-dist/tex/latex/latexconfig/color.cfg
INPUT /usr/share/texlive/texmf-dist/tex/latex/hyperref/hyperref.sty
INPUT /usr/share/texlive/texmf-dist/tex/latex/hyperref/hyperref.sty
INPUT /usr/share/texlive/texmf-dist/tex/generic/oberdiek/hobsub-hyperref.sty
INPUT /usr/share/texlive/texmf-dist/tex/generic/oberdiek/hobsub-hyperref.sty
INPUT /usr/share/texlive/texmf-dist/tex/generic/oberdiek/hobsub-hyperref.sty
INPUT /usr/share/texlive/texmf-dist/tex/generic/oberdiek/hobsub-generic.sty
INPUT /usr/share/texlive/texmf-dist/tex/generic/oberdiek/hobsub-generic.sty
INPUT /usr/share/texlive/texmf-dist/tex/generic/ifxetex/ifxetex.sty
INPUT /usr/share/texlive/texmf-dist/tex/generic/ifxetex/ifxetex.sty
INPUT /usr/share/texlive/texmf-dist/tex/latex/oberdiek/auxhook.sty
INPUT /usr/share/texlive/texmf-dist/tex/latex/oberdiek/auxhook.sty
INPUT /usr/share/texlive/texmf-dist/tex/latex/oberdiek/kvoptions.sty
INPUT /usr/share/texlive/texmf-dist/tex/latex/oberdiek/kvoptions.sty
INPUT /usr/share/texlive/texmf-dist/tex/latex/hyperref/pd1enc.def
INPUT /usr/share/texlive/texmf-dist/tex/latex/hyperref/pd1enc.def
INPUT /usr/share/texlive/texmf-dist/tex/latex/latexconfig/hyperref.cfg
INPUT /usr/share/texlive/texmf-dist/tex/latex/latexconfig/hyperref.cfg
INPUT /usr/share/texlive/texmf-dist/tex/latex/url/url.sty
INPUT /usr/share/texlive/texmf-dist/tex/latex/url/url.sty
INPUT /usr/share/texlive/texmf-dist/fonts/tfm/adobe/zapfding/pzdr.tfm
INPUT /usr/share/texlive/texmf-dist/tex/latex/hyperref/hxetex.def
INPUT /usr/share/texlive/texmf-dist/tex/latex/hyperref/hxetex.def
INPUT /usr/share/texlive/texmf-dist/tex/latex/hyperref/puenc.def
INPUT /usr/share/texlive/texmf-dist/tex/latex/hyperref/puenc.def
INPUT /usr/share/texlive/texmf-dist/tex/generic/oberdiek/stringenc.sty
INPUT /usr/share/texlive/texmf-dist/tex/generic/oberdiek/stringenc.sty
INPUT /usr/share/texlive/texmf-dist/tex/latex/oberdiek/rerunfilecheck.sty
INPUT /usr/share/texlive/texmf-dist/tex/latex/oberdiek/rerunfilecheck.sty
INPUT /usr/share/texlive/texmf-dist/tex/latex/oberdiek/hypcap.sty
INPUT /usr/share/texlive/texmf-dist/tex/latex/oberdiek/hypcap.sty
INPUT /usr/share/texlive/texmf-dist/tex/latex/multirow/multirow.sty
INPUT /usr/share/texlive/texmf-dist/tex/latex/multirow/multirow.sty
INPUT /usr/share/texlive/texmf-dist/tex/latex/tools/array.sty
INPUT /usr/share/texlive/texmf-dist/tex/latex/tools/array.sty
INPUT /usr/share/texlive/texmf-dist/tex/latex/booktabs/booktabs.sty
INPUT /usr/share/texlive/texmf-dist/tex/latex/booktabs/booktabs.sty
INPUT /usr/share/texlive/texmf-dist/tex/latex/tools/longtable.sty
INPUT /usr/share/texlive/texmf-dist/tex/latex/tools/longtable.sty
INPUT /usr/share/texlive/texmf-dist/tex/latex/graphics/lscape.sty
INPUT /usr/share/texlive/texmf-dist/tex/latex/graphics/lscape.sty
INPUT /usr/share/texlive/texmf-dist/tex/latex/appendix/appendix.sty
INPUT /usr/share/texlive/texmf-dist/tex/latex/appendix/appendix.sty
INPUT /usr/share/texlive/texmf-dist/tex/latex/tocbibind/tocbibind.sty
INPUT /usr/share/texlive/texmf-dist/tex/latex/tocbibind/tocbibind.sty
INPUT /usr/share/texlive/texmf-dist/tex/latex/algorithm2e/algorithm2e.sty
INPUT /usr/share/texlive/texmf-dist/tex/latex/algorithm2e/algorithm2e.sty
INPUT /usr/share/texlive/texmf-dist/tex/latex/tools/xspace.sty
INPUT /usr/share/texlive/texmf-dist/tex/latex/tools/xspace.sty
INPUT /usr/share/texlive/texmf-dist/tex/latex/relsize/relsize.sty
INPUT /usr/share/texlive/texmf-dist/tex/latex/relsize/relsize.sty
INPUT /usr/share/texlive/texmf-dist/tex/latex/algorithms/algorithmic.sty
INPUT /usr/share/texlive/texmf-dist/tex/latex/algorithms/algorithmic.sty
INPUT /usr/share/texlive/texmf-dist/tex/latex/etoolbox/etoolbox.sty
INPUT /usr/share/texlive/texmf-dist/tex/latex/etoolbox/etoolbox.sty
INPUT /home/miguel/Documents/formato-tesis-usach/tesis-enumeracion.sty
INPUT /home/miguel/Documents/formato-tesis-usach/tesis-enumeracion.sty
INPUT /usr/share/texlive/texmf-dist/tex/latex/listings/listings.sty
INPUT /usr/share/texlive/texmf-dist/tex/latex/listings/listings.sty
INPUT /usr/share/texlive/texmf-dist/tex/latex/listings/lstmisc.sty
INPUT /usr/share/texlive/texmf-dist/tex/latex/listings/lstmisc.sty
INPUT /usr/share/texlive/texmf-dist/tex/latex/listings/listings.cfg
INPUT /usr/share/texlive/texmf-dist/tex/latex/listings/listings.cfg
INPUT /usr/share/texlive/texmf-dist/tex/latex/listings/lstlang1.sty
INPUT /usr/share/texlive/texmf-dist/tex/latex/listings/lstlang1.sty
INPUT /usr/share/texlive/texmf-dist/tex/latex/xcolor/xcolor.sty
INPUT /usr/share/texlive/texmf-dist/tex/latex/xcolor/xcolor.sty
INPUT /usr/share/texlive/texmf-dist/tex/latex/latexconfig/color.cfg
INPUT /usr/share/texlive/texmf-dist/tex/latex/latexconfig/color.cfg
INPUT /usr/share/texlive/texmf-dist/tex/latex/colortbl/colortbl.sty
INPUT /usr/share/texlive/texmf-dist/tex/latex/colortbl/colortbl.sty
INPUT /usr/share/texlive/texmf-dist/tex/latex/natbib/natbib.sty
INPUT /usr/share/texlive/texmf-dist/tex/latex/natbib/natbib.sty
INPUT /usr/share/texlive/texmf-dist/tex/latex/babelbib/babelbib.sty
INPUT /usr/share/texlive/texmf-dist/tex/latex/babelbib/babelbib.sty
INPUT /usr/share/texlive/texmf-dist/tex/latex/titlesec/titlesec.sty
INPUT /usr/share/texlive/texmf-dist/tex/latex/titlesec/titlesec.sty
INPUT /usr/share/texlive/texmf-dist/tex/latex/geometry/geometry.sty
INPUT /usr/share/texlive/texmf-dist/tex/latex/geometry/geometry.sty
INPUT /usr/share/texlive/texmf-dist/fonts/tfm/public/amsfonts/symbols/msam10.tfm
INPUT /usr/share/texlive/texmf-dist/tex/generic/oberdiek/se-ascii-print.def
INPUT /usr/share/texlive/texmf-dist/tex/generic/oberdiek/se-ascii-print.def
INPUT /usr/share/texlive/texmf-dist/tex/generic/oberdiek/se-ascii-print.def
INPUT /home/miguel/Documents/formato-tesis-usach/tesis-usach.aux
INPUT /home/miguel/Documents/formato-tesis-usach/tesis-usach.aux
INPUT /home/miguel/Documents/formato-tesis-usach/preliminares/cubierta.aux
INPUT /home/miguel/Documents/formato-tesis-usach/preliminares/cubierta.aux
INPUT /home/miguel/Documents/formato-tesis-usach/preliminares/dedicatoria.aux
INPUT /home/miguel/Documents/formato-tesis-usach/preliminares/dedicatoria.aux
INPUT /home/miguel/Documents/formato-tesis-usach/preliminares/agradecimiento.aux
INPUT /home/miguel/Documents/formato-tesis-usach/preliminares/agradecimiento.aux
INPUT /home/miguel/Documents/formato-tesis-usach/preliminares/abstract.aux
INPUT /home/miguel/Documents/formato-tesis-usach/preliminares/abstract.aux
INPUT /home/miguel/Documents/formato-tesis-usach/chapters/1-Introduccion.aux
INPUT /home/miguel/Documents/formato-tesis-usach/chapters/1-Introduccion.aux
INPUT /home/miguel/Documents/formato-tesis-usach/chapters/2-Cuerpo.aux
INPUT /home/miguel/Documents/formato-tesis-usach/chapters/2-Cuerpo.aux
INPUT /home/miguel/Documents/formato-tesis-usach/chapters/3-Conclusiones.aux
INPUT /home/miguel/Documents/formato-tesis-usach/chapters/3-Conclusiones.aux
INPUT /home/miguel/Documents/formato-tesis-usach/anexos/Anexo-1.aux
INPUT /home/miguel/Documents/formato-tesis-usach/anexos/Anexo-1.aux
OUTPUT /home/miguel/Documents/formato-tesis-usach/tesis-usach.aux
INPUT /usr/share/texmf/tex/latex/tipa/t3cmr.fd
INPUT /usr/share/texmf/tex/latex/tipa/t3cmr.fd
INPUT /usr/share/texlive/texmf-dist/tex/latex/base/ts1cmr.fd
INPUT /usr/share/texlive/texmf-dist/tex/latex/base/ts1cmr.fd
INPUT /usr/share/texlive/texmf-dist/tex/latex/caption/ltcaption.sty
INPUT /usr/share/texlive/texmf-dist/tex/latex/caption/ltcaption.sty
INPUT /usr/share/texlive/texmf-dist/tex/latex/hyperref/nameref.sty
INPUT /usr/share/texlive/texmf-dist/tex/latex/hyperref/nameref.sty
INPUT /usr/share/texlive/texmf-dist/tex/generic/oberdiek/gettitlestring.sty
INPUT /usr/share/texlive/texmf-dist/tex/generic/oberdiek/gettitlestring.sty
INPUT /home/miguel/Documents/formato-tesis-usach/tesis-usach.out
INPUT /home/miguel/Documents/formato-tesis-usach/tesis-usach.out
INPUT /home/miguel/Documents/formato-tesis-usach/tesis-usach.out
INPUT /home/miguel/Documents/formato-tesis-usach/tesis-usach.out
OUTPUT /home/miguel/Documents/formato-tesis-usach/tesis-usach.out
INPUT /usr/share/texlive/texmf-dist/tex/latex/babelbib/english.bdf
INPUT /usr/share/texlive/texmf-dist/tex/latex/babelbib/english.bdf
OUTPUT /home/miguel/Documents/formato-tesis-usach/preliminares/cubierta.aux
INPUT /home/miguel/Documents/formato-tesis-usach/preliminares/cubierta.tex
INPUT /home/miguel/Documents/formato-tesis-usach/preliminares/cubierta.tex
INPUT /home/miguel/Documents/formato-tesis-usach/./images/LogoUsach.png
INPUT /usr/share/texlive/texmf-dist/fonts/tfm/public/amsfonts/cmextra/cmex7.tfm
INPUT /usr/share/texlive/texmf-dist/fonts/tfm/public/amsfonts/cmextra/cmex7.tfm
INPUT /usr/share/texlive/texmf-dist/tex/latex/amsfonts/umsa.fd
INPUT /usr/share/texlive/texmf-dist/tex/latex/amsfonts/umsa.fd
INPUT /usr/share/texlive/texmf-dist/fonts/tfm/public/amsfonts/symbols/msam7.tfm
INPUT /usr/share/texlive/texmf-dist/fonts/tfm/public/amsfonts/symbols/msam5.tfm
INPUT /usr/share/texlive/texmf-dist/tex/latex/amsfonts/umsb.fd
INPUT /usr/share/texlive/texmf-dist/tex/latex/amsfonts/umsb.fd
INPUT /usr/share/texlive/texmf-dist/fonts/tfm/public/amsfonts/symbols/msbm10.tfm
INPUT /usr/share/texlive/texmf-dist/fonts/tfm/public/amsfonts/symbols/msbm7.tfm
INPUT /usr/share/texlive/texmf-dist/fonts/tfm/public/amsfonts/symbols/msbm5.tfm
INPUT /usr/share/texlive/texmf-dist/tex/latex/jknapltx/ursfs.fd
INPUT /usr/share/texlive/texmf-dist/tex/latex/jknapltx/ursfs.fd
INPUT /usr/share/texlive/texmf-dist/fonts/tfm/public/rsfs/rsfs10.tfm
INPUT /usr/share/texlive/texmf-dist/fonts/tfm/public/rsfs/rsfs7.tfm
INPUT /usr/share/texlive/texmf-dist/fonts/tfm/public/rsfs/rsfs5.tfm
INPUT /usr/share/texlive/texmf-dist/tex/latex/base/ulasy.fd
INPUT /usr/share/texlive/texmf-dist/tex/latex/base/ulasy.fd
INPUT /usr/share/texlive/texmf-dist/fonts/tfm/public/latex-fonts/lasy10.tfm
INPUT /usr/share/texlive/texmf-dist/fonts/tfm/public/latex-fonts/lasy7.tfm
INPUT /usr/share/texlive/texmf-dist/fonts/tfm/public/latex-fonts/lasy5.tfm
INPUT /usr/share/texlive/texmf-dist/fonts/tfm/jknappen/ec/tcrm1000.tfm
INPUT /usr/share/texlive/texmf-dist/fonts/tfm/jknappen/ec/tcrm0700.tfm
INPUT /usr/share/texlive/texmf-dist/fonts/tfm/jknappen/ec/tcrm0500.tfm
INPUT /usr/share/texlive/texmf-dist/tex/latex/stmaryrd/Ustmry.fd
INPUT /usr/share/texlive/texmf-dist/tex/latex/stmaryrd/Ustmry.fd
INPUT /usr/share/texlive/texmf-dist/fonts/tfm/public/stmaryrd/stmary10.tfm
INPUT /usr/share/texlive/texmf-dist/fonts/tfm/public/stmaryrd/stmary7.tfm
INPUT /usr/share/texlive/texmf-dist/fonts/tfm/public/stmaryrd/stmary5.tfm
INPUT /usr/share/texlive/texmf-dist/fonts/tfm/public/amsfonts/euler/eurm10.tfm
INPUT /usr/share/texlive/texmf-dist/fonts/tfm/public/amsfonts/euler/eurm7.tfm
INPUT /usr/share/texlive/texmf-dist/fonts/tfm/public/amsfonts/euler/eurm5.tfm
INPUT /home/miguel/Documents/formato-tesis-usach/images/licenses/cc_by.png
INPUT /usr/share/texlive/texmf-dist/tex/latex/euenc/eu1lmtt.fd
INPUT /usr/share/texlive/texmf-dist/tex/latex/euenc/eu1lmtt.fd
OUTPUT /home/miguel/Documents/formato-tesis-usach/preliminares/dedicatoria.aux
INPUT /home/miguel/Documents/formato-tesis-usach/preliminares/dedicatoria.tex
INPUT /home/miguel/Documents/formato-tesis-usach/preliminares/dedicatoria.tex
OUTPUT /home/miguel/Documents/formato-tesis-usach/preliminares/agradecimiento.aux
INPUT /home/miguel/Documents/formato-tesis-usach/preliminares/agradecimiento.tex
INPUT /home/miguel/Documents/formato-tesis-usach/preliminares/agradecimiento.tex
OUTPUT /home/miguel/Documents/formato-tesis-usach/preliminares/abstract.aux
INPUT /home/miguel/Documents/formato-tesis-usach/preliminares/abstract.tex
INPUT /home/miguel/Documents/formato-tesis-usach/preliminares/abstract.tex
INPUT /home/miguel/Documents/formato-tesis-usach/tesis-usach.toc
INPUT /home/miguel/Documents/formato-tesis-usach/tesis-usach.toc
OUTPUT /home/miguel/Documents/formato-tesis-usach/tesis-usach.toc
INPUT /home/miguel/Documents/formato-tesis-usach/tesis-usach.lot
INPUT /home/miguel/Documents/formato-tesis-usach/tesis-usach.lot
OUTPUT /home/miguel/Documents/formato-tesis-usach/tesis-usach.lot
INPUT /home/miguel/Documents/formato-tesis-usach/tesis-usach.lof
INPUT /home/miguel/Documents/formato-tesis-usach/tesis-usach.lof
OUTPUT /home/miguel/Documents/formato-tesis-usach/tesis-usach.lof
INPUT /home/miguel/Documents/formato-tesis-usach/tesis-usach.loa
INPUT /home/miguel/Documents/formato-tesis-usach/tesis-usach.loa
OUTPUT /home/miguel/Documents/formato-tesis-usach/tesis-usach.loa
OUTPUT /home/miguel/Documents/formato-tesis-usach/chapters/1-Introduccion.aux
INPUT /home/miguel/Documents/formato-tesis-usach/chapters/1-Introduccion.tex
INPUT /home/miguel/Documents/formato-tesis-usach/chapters/1-Introduccion.tex
OUTPUT /home/miguel/Documents/formato-tesis-usach/chapters/2-Cuerpo.aux
INPUT /home/miguel/Documents/formato-tesis-usach/chapters/2-Cuerpo.tex
INPUT /home/miguel/Documents/formato-tesis-usach/chapters/2-Cuerpo.tex
INPUT /home/miguel/Documents/formato-tesis-usach/images/HLTau_B6antennas1.png
INPUT /home/miguel/Documents/formato-tesis-usach/images/HLTau_B6antennasCenter.png
INPUT /home/miguel/Documents/formato-tesis-usach/images/ecuatorial1.png
INPUT /home/miguel/Documents/formato-tesis-usach/images/ecuatorial2.png
INPUT /home/miguel/Documents/formato-tesis-usach/images/horizontales.png
INPUT /home/miguel/Documents/formato-tesis-usach/images/uvplane1.png
INPUT /home/miguel/Documents/formato-tesis-usach/images/uvplane2.png
INPUT /home/miguel/Documents/formato-tesis-usach/images/HLTau_B3total.png
INPUT /home/miguel/Documents/formato-tesis-usach/images/HLTau_B6total.png
INPUT /home/miguel/Documents/formato-tesis-usach/images/HLTau_B7total.png
INPUT /home/miguel/Documents/formato-tesis-usach/images/frecuencias.eps
INPUT /home/miguel/Documents/formato-tesis-usach/images/frecuencias.eps
INPUT /home/miguel/Documents/formato-tesis-usach/images/antenas.eps
INPUT /home/miguel/Documents/formato-tesis-usach/images/antenas.eps
INPUT /home/miguel/Documents/formato-tesis-usach/./images/matrixandvector.eps
INPUT /home/miguel/Documents/formato-tesis-usach/./images/matrixandvector.eps
INPUT /home/miguel/Documents/formato-tesis-usach/./images/p2p.eps
INPUT /home/miguel/Documents/formato-tesis-usach/./images/p2p.eps
INPUT /home/miguel/Documents/formato-tesis-usach/./images/openmp.eps
INPUT /home/miguel/Documents/formato-tesis-usach/./images/openmp.eps
OUTPUT /home/miguel/Documents/formato-tesis-usach/chapters/3-Conclusiones.aux
INPUT /home/miguel/Documents/formato-tesis-usach/chapters/3-Conclusiones.tex
INPUT /home/miguel/Documents/formato-tesis-usach/chapters/3-Conclusiones.tex
INPUT /home/miguel/Documents/formato-tesis-usach/tesis-usach.bbl
INPUT /home/miguel/Documents/formato-tesis-usach/tesis-usach.bbl
OUTPUT /home/miguel/Documents/formato-tesis-usach/anexos/Anexo-1.aux
INPUT /home/miguel/Documents/formato-tesis-usach/anexos/Anexo-1.tex
INPUT /home/miguel/Documents/formato-tesis-usach/anexos/Anexo-1.tex
INPUT /home/miguel/Documents/formato-tesis-usach/tesis-usach.aux
INPUT /home/miguel/Documents/formato-tesis-usach/preliminares/cubierta.aux
INPUT /home/miguel/Documents/formato-tesis-usach/preliminares/cubierta.aux
INPUT /home/miguel/Documents/formato-tesis-usach/preliminares/dedicatoria.aux
INPUT /home/miguel/Documents/formato-tesis-usach/preliminares/dedicatoria.aux
INPUT /home/miguel/Documents/formato-tesis-usach/preliminares/agradecimiento.aux
INPUT /home/miguel/Documents/formato-tesis-usach/preliminares/agradecimiento.aux
INPUT /home/miguel/Documents/formato-tesis-usach/preliminares/abstract.aux
INPUT /home/miguel/Documents/formato-tesis-usach/preliminares/abstract.aux
INPUT /home/miguel/Documents/formato-tesis-usach/chapters/1-Introduccion.aux
INPUT /home/miguel/Documents/formato-tesis-usach/chapters/1-Introduccion.aux
INPUT /home/miguel/Documents/formato-tesis-usach/chapters/2-Cuerpo.aux
INPUT /home/miguel/Documents/formato-tesis-usach/chapters/2-Cuerpo.aux
INPUT /home/miguel/Documents/formato-tesis-usach/chapters/3-Conclusiones.aux
INPUT /home/miguel/Documents/formato-tesis-usach/chapters/3-Conclusiones.aux
INPUT /home/miguel/Documents/formato-tesis-usach/anexos/Anexo-1.aux
INPUT /home/miguel/Documents/formato-tesis-usach/anexos/Anexo-1.aux
